tb_dual_clk_fifo.vcd
$date
	Sat Aug  5 15:07:11 2023
$end
$version
	Icarus Verilog
$end
$timescale
	1ps
$end
$scope module tb_dual_clk_fifo $end
$var wire 1 ! wfull $end
$var wire 1 " rempty $end
$var wire 8 # rdata [7:0] $end
$var reg 8 $ rand_data [7:0] $end
$var reg 1 % rclk $end
$var reg 1 & rinc $end
$var reg 1 ' rrst_n $end
$var reg 1 ( wclk $end
$var reg 8 ) wdata [7:0] $end
$var reg 1 * winc $end
$var reg 1 + wrst_n $end
$scope module inst $end
$var wire 1 % rclk $end
$var wire 1 & rinc $end
$var wire 1 ' rrst_n $end
$var wire 1 ( wclk $end
$var wire 8 , wdata [7:0] $end
$var wire 1 * winc $end
$var wire 1 + wrst_n $end
$var wire 5 - wq2_rptr [4:0] $end
$var wire 5 . wptr [4:0] $end
$var wire 1 ! wfull $end
$var wire 4 / waddr [3:0] $end
$var wire 5 0 rq2_wptr [4:0] $end
$var wire 5 1 rptr [4:0] $end
$var wire 1 " rempty $end
$var wire 8 2 rdata [7:0] $end
$var wire 4 3 raddr [3:0] $end
$scope module fifomem $end
$var wire 8 4 rdata [7:0] $end
$var wire 1 ( wclk $end
$var wire 1 * wclken $end
$var wire 8 5 wdata [7:0] $end
$var wire 1 ! wfull $end
$var wire 4 6 waddr [3:0] $end
$var wire 4 7 raddr [3:0] $end
$upscope $end
$scope module rptr_empty $end
$var wire 1 % rclk $end
$var wire 5 8 rgraynext [4:0] $end
$var wire 1 & rinc $end
$var wire 1 ' rrst_n $end
$var wire 5 9 rq2_wptr [4:0] $end
$var wire 1 : rempty_val $end
$var wire 5 ; rbinnext [4:0] $end
$var wire 4 < raddr [3:0] $end
$var reg 5 = rbin [4:0] $end
$var reg 1 " rempty $end
$var reg 5 > rptr [4:0] $end
$upscope $end
$scope module sync_r2w $end
$var wire 5 ? rptr [4:0] $end
$var wire 1 ( wclk $end
$var wire 1 + wrst_n $end
$var reg 5 @ wq1_rptr [4:0] $end
$var reg 5 A wq2_rptr [4:0] $end
$upscope $end
$scope module sync_w2r $end
$var wire 1 % rclk $end
$var wire 1 ' rrst_n $end
$var wire 5 B wptr [4:0] $end
$var reg 5 C rq1_wptr [4:0] $end
$var reg 5 D rq2_wptr [4:0] $end
$upscope $end
$scope module wptr_full $end
$var wire 1 ( wclk $end
$var wire 5 E wgraynext [4:0] $end
$var wire 1 * winc $end
$var wire 5 F wq2_rptr [4:0] $end
$var wire 1 + wrst_n $end
$var wire 1 G wfull_val $end
$var wire 5 H wbinnext [4:0] $end
$var wire 4 I waddr [3:0] $end
$var reg 5 J wbin [4:0] $end
$var reg 1 ! wfull $end
$var reg 5 K wptr [4:0] $end
$upscope $end
$upscope $end
$upscope $end
$enddefinitions $end
#0
$dumpvars
b0 K
b0 J
b0 I
b0 H
0G
b0 F
b0 E
b0 D
b0 C
b0 B
b0 A
b0 @
b0 ?
b0 >
b0 =
b0 <
b0 ;
1:
b0 9
b0 8
b0 7
b0 6
b0 5
bx 4
b0 3
bx 2
b0 1
b0 0
b0 /
b0 .
b0 -
b0 ,
0+
0*
b0 )
0(
0'
0&
0%
b0 $
bx #
1"
0!
$end
#5000
1(
#10000
0(
1%
#15000
1(
#20000
0(
0%
1+
#25000
1(
#30000
0(
1%
#31000
b10000001 $
#35000
1(
#36000
b1100011 $
#40000
0(
0%
1'
#45000
1(
#50000
b1 E
b1 H
0(
1%
1*
b1100011 )
b1100011 ,
b1100011 5
#55000
b1 /
b1 6
b1 I
b11 E
b1100011 #
b1100011 2
b1100011 4
b10 H
b1 J
b1 .
b1 B
b1 K
1(
#60000
b1 E
b1 H
0(
0%
1&
0*
#65000
1(
b10001101 $
#70000
b1 C
0(
1%
0&
#75000
1(
#79000
b10010 $
#80000
b11 E
b10 H
0(
0%
1*
b10010 )
b10010 ,
b10010 5
#85000
b10 /
b10 6
b10 I
b10 E
b11 H
b10 J
b11 .
b11 B
b11 K
1(
#90000
0:
b1 0
b1 9
b1 D
b11 C
b11 E
b10 H
0(
1%
1&
0*
#95000
1(
#100000
0(
0%
0&
#105000
1(
#107000
b1101 $
#110000
b11 0
b11 9
b11 D
0"
b10 E
b11 H
0(
1%
1*
b1101 )
b1101 ,
b1101 5
#115000
b11 /
b11 6
b11 I
b110 E
b100 H
b11 J
b10 .
b10 B
b10 K
1(
#120000
b1 8
b10 E
b1 ;
b11 H
0(
0%
1&
0*
#125000
1(
#130000
b1 1
b1 >
b1 ?
b10 C
b0 8
b0 ;
0(
1%
0&
#135000
b1 @
1(
#140000
b110 E
b100 H
0(
0%
1*
#145000
b100 /
b100 6
b100 I
b111 E
b101 H
b100 J
b110 .
b110 B
b110 K
b1 -
b1 A
b1 F
1(
b111101 $
#150000
b10010 #
b10010 2
b10010 4
b1 3
b1 7
b1 <
0:
b10 0
b10 9
b10 D
b110 C
b1 =
b0 1
b0 >
b0 ?
b11 8
b110 E
b10 ;
b100 H
0(
1%
1&
0*
#155000
b0 @
1(
#160000
b1 8
b1 ;
0(
0%
0&
#165000
b0 -
b0 A
b0 F
1(
#170000
b1 1
b1 >
b1 ?
b110 0
b110 9
b110 D
b111 E
b101 H
0(
1%
1*
b111101 )
b111101 ,
b111101 5
#175000
b101 /
b101 6
b101 I
b101 E
b1 @
b110 H
b101 J
b111 .
b111 B
b111 K
1(
#180000
b11 8
b111 E
b10 ;
b101 H
0(
0%
1&
0*
#185000
b1 -
b1 A
b1 F
1(
#190000
b111 C
b11 1
b11 >
b11 ?
b1 8
b1 ;
0(
1%
0&
#194000
b10001100 $
#195000
b11 @
1(
#200000
b101 E
b110 H
0(
0%
1*
b10001100 )
b10001100 ,
b10001100 5
#205000
b110 /
b110 6
b110 I
b100 E
b111 H
b110 J
b101 .
b101 B
b101 K
b11 -
b11 A
b11 F
1(
#210000
b1101 #
b1101 2
b1101 4
b10 3
b10 7
b10 <
b10 =
b1 1
b1 >
b1 ?
b111 0
b111 9
b111 D
b101 C
b10 8
b101 E
b11 ;
b110 H
0(
1%
1&
0*
#215000
b1 @
1(
#220000
b11 8
b10 ;
0(
0%
0&
#225000
b1 -
b1 A
b1 F
1(
#230000
b101 0
b101 9
b101 D
b11 1
b11 >
b11 ?
b100 E
b111 H
0(
1%
1*
#235000
b111 /
b111 6
b111 I
b1100 E
b11 @
b1000 H
b111 J
b100 .
b100 B
b100 K
1(
#240000
b10 8
b100 E
b11 ;
b111 H
0(
0%
1&
0*
#244000
b11000110 $
#245000
b11 -
b11 A
b11 F
1(
#250000
b10 1
b10 >
b10 ?
b100 C
b11 8
b10 ;
0(
1%
0&
#255000
b10 @
1(
#260000
b1100 E
b1000 H
0(
0%
1*
b11000110 )
b11000110 ,
b11000110 5
#265000
b1000 /
b1000 6
b1000 I
b1101 E
b1001 H
b1000 J
b1100 .
b1100 B
b1100 K
b10 -
b10 A
b10 F
1(
#266000
b10101010 $
#270000
b11 3
b11 7
b11 <
b100 0
b100 9
b100 D
b1100 C
b11 =
b11 1
b11 >
b11 ?
b110 8
b1100 E
b100 ;
b1000 H
0(
1%
1&
0*
#275000
b11 @
1(
#280000
b10 8
b11 ;
0(
0%
0&
#285000
b11 -
b11 A
b11 F
1(
#290000
b10 1
b10 >
b10 ?
b1100 0
b1100 9
b1100 D
b1101 E
b1001 H
0(
1%
1*
b10101010 )
b10101010 ,
b10101010 5
#295000
b1001 /
b1001 6
b1001 I
b1111 E
b10 @
b1010 H
b1001 J
b1101 .
b1101 B
b1101 K
1(
#300000
b110 8
b1101 E
b100 ;
b1001 H
0(
0%
1&
0*
#305000
b10 -
b10 A
b10 F
1(
#310000
b1101 C
b110 1
b110 >
b110 ?
b10 8
b11 ;
0(
1%
0&
#314000
b1110111 $
#315000
b110 @
1(
#320000
b1111 E
b1010 H
0(
b10001111 $
0%
1*
b1110111 )
b1110111 ,
b1110111 5
#325000
b1010 /
b1010 6
b1010 I
b1110 E
b1011 H
b1010 J
b1111 .
b1111 B
b1111 K
b110 -
b110 A
b110 F
1(
#330000
b111101 #
b111101 2
b111101 4
b100 3
b100 7
b100 <
b100 =
b10 1
b10 >
b10 ?
b1101 0
b1101 9
b1101 D
b1111 C
b111 8
b1111 E
b101 ;
b1010 H
0(
1%
1&
0*
#335000
b10 @
1(
#340000
b110 8
b100 ;
0(
0%
0&
#345000
b10 -
b10 A
b10 F
1(
#350000
b1111 0
b1111 9
b1111 D
b110 1
b110 >
b110 ?
b1110 E
b1011 H
0(
1%
1*
b10001111 )
b10001111 ,
b10001111 5
#355000
b1011 /
b1011 6
b1011 I
b1010 E
b110 @
b1100 H
b1011 J
b1110 .
b1110 B
b1110 K
1(
#360000
b111 8
b1110 E
b101 ;
b1011 H
0(
0%
1&
0*
#365000
b110 -
b110 A
b110 F
1(
#369000
b11001110 $
#370000
b111 1
b111 >
b111 ?
b1110 C
b110 8
b100 ;
0(
1%
0&
#375000
b111 @
1(
#380000
b1010 E
b1100 H
0(
0%
1*
b11001110 )
b11001110 ,
b11001110 5
#385000
b1100 /
b1100 6
b1100 I
b1011 E
b1101 H
b1100 J
b1010 .
b1010 B
b1010 K
b111 -
b111 A
b111 F
1(
#390000
b10001100 #
b10001100 2
b10001100 4
b101 3
b101 7
b101 <
b1110 0
b1110 9
b1110 D
b1010 C
b101 =
b110 1
b110 >
b110 ?
b101 8
b1010 E
b110 ;
b1100 H
0(
1%
1&
0*
#394000
b11000101 $
#395000
b110 @
1(
#400000
b111 8
b101 ;
0(
0%
0&
#405000
b110 -
b110 A
b110 F
1(
#410000
b111 1
b111 >
b111 ?
b1010 0
b1010 9
b1010 D
b1011 E
b1101 H
0(
1%
1*
b11000101 )
b11000101 ,
b11000101 5
#415000
b1101 /
b1101 6
b1101 I
b1001 E
b111 @
b1110 H
b1101 J
b1011 .
b1011 B
b1011 K
1(
#420000
b101 8
b1011 E
b110 ;
b1101 H
0(
0%
1&
0*
#425000
b111 -
b111 A
b111 F
1(
#430000
b1011 C
b101 1
b101 >
b101 ?
b111 8
b101 ;
0(
1%
0&
b10111101 $
#435000
b101 @
1(
#439000
b1100101 $
#440000
b1001 E
b1110 H
0(
0%
1*
b1100101 )
b1100101 ,
b1100101 5
#445000
b1110 /
b1110 6
b1110 I
b1000 E
b1111 H
b1110 J
b1001 .
b1001 B
b1001 K
b101 -
b101 A
b101 F
1(
#450000
b110 3
b110 7
b110 <
b110 =
b111 1
b111 >
b111 ?
b1011 0
b1011 9
b1011 D
b1001 C
b100 8
b1001 E
b111 ;
b1110 H
0(
1%
1&
0*
#452000
b1010 $
#455000
b111 @
1(
#460000
b101 8
b110 ;
0(
0%
0&
#465000
b111 -
b111 A
b111 F
1(
#468000
b100000 $
#470000
b1001 0
b1001 9
b1001 D
b101 1
b101 >
b101 ?
b1000 E
b1111 H
0(
1%
1*
b100000 )
b100000 ,
b100000 5
#475000
b1111 /
b1111 6
b1111 I
b11000 E
b101 @
b10000 H
b1111 J
b1000 .
b1000 B
b1000 K
1(
#480000
b100 8
b1000 E
b111 ;
b1111 H
0(
0%
1&
0*
#485000
b101 -
b101 A
b101 F
1(
#490000
b100 1
b100 >
b100 ?
b1000 C
b101 8
b110 ;
0(
1%
0&
#495000
b100 @
1(
#500000
b11000 E
b10000 H
0(
0%
1*
#505000
b0 /
b0 6
b0 I
b11001 E
b10001 H
b10000 J
b11000 .
b11000 B
b11000 K
b100 -
b100 A
b100 F
1(
#510000
b11000110 #
b11000110 2
b11000110 4
b111 3
b111 7
b111 <
b1000 0
b1000 9
b1000 D
b11000 C
b111 =
b101 1
b101 >
b101 ?
b1100 8
b11000 E
b1000 ;
b10000 H
0(
1%
1&
0*
#511000
b10011101 $
#515000
b101 @
1(
#520000
b100 8
b111 ;
0(
0%
0&
#525000
b101 -
b101 A
b101 F
1(
#529000
b10011 $
#530000
b100 1
b100 >
b100 ?
b11000 0
b11000 9
b11000 D
b11001 E
b10001 H
0(
1%
1*
b10011 )
b10011 ,
b10011 5
#535000
b1 /
b1 6
b1 I
b11011 E
b100 @
b10010 H
b10001 J
b11001 .
b11001 B
b11001 K
1(
b1010011 $
#540000
b1100 8
b11001 E
b1000 ;
b10001 H
0(
0%
1&
0*
#545000
b100 -
b100 A
b100 F
1(
#550000
b11001 C
b1100 1
b1100 >
b1100 ?
b100 8
b111 ;
0(
1%
0&
#555000
b1100 @
1(
#560000
b11011 E
b10010 H
0(
0%
1*
b1010011 )
b1010011 ,
b1010011 5
#565000
b10 /
b10 6
b10 I
b11010 E
b10011 H
b10010 J
b11011 .
b11011 B
b11011 K
b1100 -
b1100 A
b1100 F
1(
#570000
b10101010 #
b10101010 2
b10101010 4
b1000 3
b1000 7
b1000 <
b1000 =
b100 1
b100 >
b100 ?
b11001 0
b11001 9
b11001 D
b11011 C
b1101 8
b11011 E
b1001 ;
b10010 H
0(
1%
1&
0*
#572000
b11010101 $
#575000
b100 @
1(
#577000
b10101110 $
#580000
b1100 8
b1000 ;
0(
0%
0&
#585000
b100 -
b100 A
b100 F
1(
#590000
b11011 0
b11011 9
b11011 D
b1100 1
b1100 >
b1100 ?
b11010 E
b10011 H
0(
1%
1*
b10101110 )
b10101110 ,
b10101110 5
#595000
b11 /
b11 6
b11 I
b11110 E
b1100 @
b10100 H
b10011 J
b11010 .
b11010 B
b11010 K
1(
#600000
b1101 8
b11010 E
b1001 ;
b10011 H
0(
0%
1&
0*
#605000
b1100 -
b1100 A
b1100 F
1(
#607000
b11001111 $
#610000
b1101 1
b1101 >
b1101 ?
b11010 C
b1100 8
b1000 ;
0(
1%
0&
#615000
b1101 @
1(
#620000
b11110 E
b10100 H
0(
0%
1*
b11001111 )
b11001111 ,
b11001111 5
#625000
b100 /
b100 6
b100 I
b11111 E
b10101 H
b10100 J
b11110 .
b11110 B
b11110 K
b1101 -
b1101 A
b1101 F
1(
#630000
b1110111 #
b1110111 2
b1110111 4
b1001 3
b1001 7
b1001 <
b11010 0
b11010 9
b11010 D
b11110 C
b1001 =
b1100 1
b1100 >
b1100 ?
b1111 8
b11110 E
b1010 ;
b10100 H
0(
1%
1&
0*
#635000
b1100 @
1(
#638000
b1010 $
#640000
b1101 8
b1001 ;
0(
0%
0&
#645000
b1100 -
b1100 A
b1100 F
1(
#650000
b1101 1
b1101 >
b1101 ?
b11110 0
b11110 9
b11110 D
b11111 E
b10101 H
0(
1%
1*
b1010 )
b1010 ,
b1010 5
#655000
b101 /
b101 6
b101 I
b11101 E
b1101 @
b10110 H
b10101 J
b11111 .
b11111 B
b11111 K
1(
#660000
b1111 8
b11111 E
b1010 ;
b10101 H
0(
0%
1&
0*
#661000
b111100 $
#665000
b1101 -
b1101 A
b1101 F
1(
#670000
b11111 C
b1111 1
b1111 >
b1111 ?
b1101 8
b1001 ;
0(
1%
0&
#675000
b1111 @
1(
#680000
b11101 E
b10110 H
0(
0%
1*
b111100 )
b111100 ,
b111100 5
#685000
b110 /
b110 6
b110 I
b11100 E
b10111 H
b10110 J
b11101 .
b11101 B
b11101 K
b1111 -
b1111 A
b1111 F
1(
#690000
b10001111 #
b10001111 2
b10001111 4
b1010 3
b1010 7
b1010 <
b1010 =
b1101 1
b1101 >
b1101 ?
b11111 0
b11111 9
b11111 D
b11101 C
b1110 8
b11101 E
b1011 ;
b10110 H
0(
1%
1&
0*
#695000
b1101 @
1(
#700000
b1111 8
b1010 ;
0(
0%
0&
#705000
b1101 -
b1101 A
b1101 F
1(
#710000
b11101 0
b11101 9
b11101 D
b1111 1
b1111 >
b1111 ?
b11100 E
b10111 H
0(
1%
1*
b10001010 )
b10001010 ,
b10001010 5
b10001010 $
#715000
b111 /
b111 6
b111 I
b10100 E
b1111 @
b11000 H
b10111 J
b11100 .
b11100 B
b11100 K
1(
#720000
b1110 8
b11100 E
b1011 ;
b10111 H
0(
0%
1&
0*
#725000
b1111 -
b1111 A
b1111 F
1(
#730000
b1110 1
b1110 >
b1110 ?
b11100 C
b1111 8
b1010 ;
0(
1%
0&
#735000
b1110 @
1(
#740000
b10100 E
b11000 H
0(
0%
1*
#743000
b11011000 $
#745000
b1000 /
b1000 6
b1000 I
b10101 E
b11001 H
b11000 J
b10100 .
b10100 B
b10100 K
b1110 -
b1110 A
b1110 F
1(
#750000
b11001110 #
b11001110 2
b11001110 4
b1011 3
b1011 7
b1011 <
b11100 0
b11100 9
b11100 D
b10100 C
b1011 =
b1111 1
b1111 >
b1111 ?
b1010 8
b10100 E
b1100 ;
b11000 H
0(
1%
1&
0*
#755000
b1111 @
1(
#760000
b1110 8
b1011 ;
0(
0%
0&
#765000
b1111 -
b1111 A
b1111 F
1(
#770000
b1110 1
b1110 >
b1110 ?
b10100 0
b10100 9
b10100 D
b10101 E
b11001 H
0(
1%
1*
b11011000 )
b11011000 ,
b11011000 5
#775000
1G
b1001 /
b1001 6
b1001 I
b10111 E
b1110 @
b11010 H
b11001 J
b10101 .
b10101 B
b10101 K
1(
#780000
b1010 8
0G
b10101 E
b1100 ;
b11001 H
0(
0%
1&
0*
#781000
b10001001 $
#785000
b1110 -
b1110 A
b1110 F
1(
#790000
b10101 C
b1010 1
b1010 >
b1010 ?
b1110 8
b1011 ;
0(
1%
0&
#795000
b1010 @
1(
#800000
0G
b10111 E
b11010 H
0(
0%
1*
b10001001 )
b10001001 ,
b10001001 5
#805000
b1010 /
b1010 6
b1010 I
b10110 E
b11011 H
b11010 J
b10111 .
b10111 B
b10111 K
b1010 -
b1010 A
b1010 F
1(
#810000
b11000101 #
b11000101 2
b11000101 4
b1100 3
b1100 7
b1100 <
b1100 =
b1110 1
b1110 >
b1110 ?
b10101 0
b10101 9
b10101 D
b10111 C
b1011 8
b10111 E
b1101 ;
b11010 H
0(
1%
1&
0*
#815000
b1110 @
1(
#820000
b1010 8
b1100 ;
0(
0%
0&
#825000
b1110 -
b1110 A
b1110 F
1(
#830000
b10111 0
b10111 9
b10111 D
b1010 1
b1010 >
b1010 ?
1G
b10110 E
b11011 H
0(
1%
1*
b10110110 )
b10110110 ,
b10110110 5
b10110110 $
#835000
b1011 /
b1011 6
b1011 I
1G
b10110 E
b1010 @
b11011 H
b11011 J
b10110 .
b10110 B
b10110 K
1!
1(
#840000
b1011 8
b1101 ;
0(
0%
1&
0*
#845000
0G
b1010 -
b1010 A
b1010 F
1(
#850000
b1011 1
b1011 >
b1011 ?
b10110 C
b1010 8
b1100 ;
0(
1%
0&
#855000
b1011 @
0!
1(
#860000
1G
b10010 E
b11100 H
0(
0%
1*
#865000
b1100 /
b1100 6
b1100 I
b10010 E
0G
1!
b11100 H
b11100 J
b10010 .
b10010 B
b10010 K
b1011 -
b1011 A
b1011 F
1(
#870000
b1100101 #
b1100101 2
b1100101 4
b1101 3
b1101 7
b1101 <
b10110 0
b10110 9
b10110 D
b10010 C
b1101 =
b1010 1
b1010 >
b1010 ?
b1001 8
b1110 ;
0(
1%
1&
0*
#875000
b1010 @
0!
1(
b10101110 $
#880000
b1011 8
b1101 ;
0(
0%
0&
#885000
1G
b1010 -
b1010 A
b1010 F
1(
#890000
b1011 1
b1011 >
b1011 ?
b10010 0
b10010 9
b10010 D
0G
b10011 E
b11101 H
0(
1%
1*
b10101110 )
b10101110 ,
b10101110 5
#895000
b1101 /
b1101 6
b1101 I
b10001 E
b1011 @
b11110 H
b11101 J
b10011 .
b10011 B
b10011 K
1(
#896000
b101010 $
#900000
b1001 8
0G
b10011 E
b1110 ;
b11101 H
0(
0%
1&
0*
#902000
b1110001 $
#905000
1G
b1011 -
b1011 A
b1011 F
1(
#910000
b10011 C
b1001 1
b1001 >
b1001 ?
b1011 8
b1101 ;
0(
1%
0&
#915000
b1001 @
1!
1(
#920000
0(
0%
1*
b1110001 )
b1110001 ,
b1110001 5
#925000
0G
b1001 -
b1001 A
b1001 F
1(
#930000
b100000 #
b100000 2
b100000 4
b1110 3
b1110 7
b1110 <
b1110 =
b1011 1
b1011 >
b1011 ?
b10011 0
b10011 9
b10011 D
b1000 8
b1111 ;
0(
1%
1&
0*
#935000
b1011 @
0!
1(
#940000
b1001 8
b1110 ;
0(
0%
0&
#942000
b1001111 $
#945000
1G
b1011 -
b1011 A
b1011 F
1(
#950000
b1001 1
b1001 >
b1001 ?
0G
b10001 E
b11110 H
0(
1%
1*
b1001111 )
b1001111 ,
b1001111 5
#952000
b111010 $
#955000
b1110 /
b1110 6
b1110 I
b10000 E
b1001 @
b11111 H
b11110 J
b10001 .
b10001 B
b10001 K
1(
#960000
b1000 8
b10001 E
b1111 ;
b11110 H
0(
0%
1&
0*
#965000
1G
b1001 -
b1001 A
b1001 F
1(
#968000
b10101 $
#970000
b1000 1
b1000 >
b1000 ?
b10001 C
b1001 8
b1110 ;
0(
1%
0&
#975000
b1000 @
1!
1(
#980000
0(
0%
1*
b10101 )
b10101 ,
b10101 5
#985000
0G
b1000 -
b1000 A
b1000 F
1(
#990000
b1111 3
b1111 7
b1111 <
b10001 0
b10001 9
b10001 D
b1111 =
b1001 1
b1001 >
b1001 ?
b11000 8
b10000 ;
0(
1%
1&
0*
#995000
b1001 @
0!
1(
#1000000
b1000 8
b1111 ;
0(
0%
0&
#1005000
1G
b1001 -
b1001 A
b1001 F
1(
#1010000
b1000 1
b1000 >
b1000 ?
0G
b10000 E
b11111 H
0(
1%
1*
#1015000
b1111 /
b1111 6
b1111 I
b0 E
b1000 @
b0 H
b11111 J
b10000 .
b10000 B
b10000 K
1(
#1017000
b11011001 $
#1020000
b11000 8
b10000 E
b10000 ;
b11111 H
0(
0%
1&
0*
#1025000
1G
b1000 -
b1000 A
b1000 F
1(
#1030000
b10000 C
b11000 1
b11000 >
b11000 ?
b1000 8
b1111 ;
0(
1%
0&
#1035000
b11000 @
1!
1(
#1040000
0(
0%
1*
b11011001 )
b11011001 ,
b11011001 5
#1045000
0G
b11000 -
b11000 A
b11000 F
1(
#1050000
b10011 #
b10011 2
b10011 4
b0 3
b0 7
b0 <
b10000 =
b1000 1
b1000 >
b1000 ?
b10000 0
b10000 9
b10000 D
b11001 8
b10001 ;
0(
1%
1&
0*
#1053000
b1001100 $
#1055000
b1000 @
0!
1(
#1060000
b11000 8
b10000 ;
0(
0%
0&
#1065000
1G
b1000 -
b1000 A
b1000 F
1(
#1070000
b11000 1
b11000 >
b11000 ?
0G
b0 E
b0 H
0(
1%
1*
b1001100 )
b1001100 ,
b1001100 5
#1075000
b0 /
b0 6
b0 I
b1 E
b11000 @
b1 H
b0 J
b0 .
b0 B
b0 K
1(
#1080000
b11001 8
b0 E
b10001 ;
b0 H
0(
0%
1&
0*
#1085000
1G
b11000 -
b11000 A
b11000 F
1(
#1090000
b11001 1
b11001 >
b11001 ?
b0 C
b11000 8
b10000 ;
0(
1%
0&
#1095000
b11001 @
1!
1(
b10001111 $
#1100000
0(
0%
1*
b10001111 )
b10001111 ,
b10001111 5
#1105000
0G
b11001 -
b11001 A
b11001 F
1(
#1110000
b1010011 #
b1010011 2
b1010011 4
b1 3
b1 7
b1 <
b0 0
b0 9
b0 D
b10001 =
b11000 1
b11000 >
b11000 ?
b11011 8
b10010 ;
0(
1%
1&
0*
#1115000
b11000 @
0!
1(
#1120000
b11001 8
b10001 ;
0(
0%
0&
#1125000
1G
b11000 -
b11000 A
b11000 F
1(
#1130000
b11001 1
b11001 >
b11001 ?
0G
b1 E
b1 H
0(
1%
1*
#1135000
b1 /
b1 6
b1 I
b11 E
b11001 @
b10 H
b1 J
b1 .
b1 B
b1 K
1(
#1140000
b11011 8
0G
b1 E
b10010 ;
b1 H
0(
0%
1&
0*
#1145000
1G
b11001 -
b11001 A
b11001 F
1(
b10110111 $
#1150000
b1 C
b11011 1
b11011 >
b11011 ?
b11001 8
b10001 ;
0(
1%
0&
#1155000
b11011 @
1!
1(
#1160000
0(
0%
1*
b10110111 )
b10110111 ,
b10110111 5
#1164000
b1011100 $
#1165000
0G
b11011 -
b11011 A
b11011 F
1(
#1170000
b10101110 #
b10101110 2
b10101110 4
b10 3
b10 7
b10 <
b10010 =
b11001 1
b11001 >
b11001 ?
b1 0
b1 9
b1 D
b11010 8
b10011 ;
0(
1%
1&
0*
#1175000
b11001 @
0!
1(
#1177000
b10001001 $
#1180000
b11011 8
b10010 ;
0(
0%
0&
#1185000
1G
b11001 -
b11001 A
b11001 F
1(
#1188000
b11010000 $
#1190000
b11011 1
b11011 >
b11011 ?
0G
b11 E
b10 H
0(
1%
1*
b11010000 )
b11010000 ,
b11010000 5
#1195000
b10 /
b10 6
b10 I
b10 E
b11011 @
b11 H
b10 J
b11 .
b11 B
b11 K
1(
#1200000
b11010 8
b11 E
b10011 ;
b10 H
0(
0%
1&
0*
#1205000
1G
b11011 -
b11011 A
b11011 F
1(
#1210000
b11010 1
b11010 >
b11010 ?
b11 C
b11011 8
b10010 ;
0(
1%
0&
#1212000
b1010001 $
#1215000
b11010 @
1!
1(
#1220000
0(
0%
1*
b1010001 )
b1010001 ,
b1010001 5
#1225000
0G
b11010 -
b11010 A
b11010 F
1(
#1230000
b11001111 #
b11001111 2
b11001111 4
b11 3
b11 7
b11 <
b11 0
b11 9
b11 D
b10011 =
b11011 1
b11011 >
b11011 ?
b11110 8
b10100 ;
0(
1%
1&
0*
#1235000
b11011 @
0!
1(
#1240000
b11010 8
b10011 ;
0(
0%
0&
#1245000
1G
b11011 -
b11011 A
b11011 F
1(
#1250000
b11010 1
b11010 >
b11010 ?
0G
b10 E
b11 H
0(
1%
1*
#1253000
b1100 $
#1255000
b11 /
b11 6
b11 I
b110 E
b11010 @
b100 H
b11 J
b10 .
b10 B
b10 K
1(
#1260000
b11110 8
b10 E
b10100 ;
b11 H
0(
0%
1&
0*
#1265000
1G
b11010 -
b11010 A
b11010 F
1(
#1270000
b10 C
b11110 1
b11110 >
b11110 ?
b11010 8
b10011 ;
0(
1%
0&
#1275000
b11110 @
1!
1(
b11001000 $
#1280000
0(
0%
1*
b11001000 )
b11001000 ,
b11001000 5
#1285000
0G
b11110 -
b11110 A
b11110 F
1(
#1290000
b1010 #
b1010 2
b1010 4
b100 3
b100 7
b100 <
b10100 =
b11010 1
b11010 >
b11010 ?
b10 0
b10 9
b10 D
b11111 8
b10101 ;
0(
1%
1&
0*
b111101 $
#1295000
b11010 @
0!
1(
#1300000
b11110 8
b10100 ;
0(
0%
0&
#1305000
1G
b11010 -
b11010 A
b11010 F
1(
#1310000
b11110 1
b11110 >
b11110 ?
0G
b110 E
b100 H
0(
1%
1*
b111101 )
b111101 ,
b111101 5
#1315000
b100 /
b100 6
b100 I
b111 E
b11110 @
b101 H
b100 J
b110 .
b110 B
b110 K
1(
#1319000
b1111110 $
#1320000
b11111 8
b110 E
b10101 ;
b100 H
0(
0%
1&
0*
#1325000
1G
b11110 -
b11110 A
b11110 F
1(
#1330000
b11111 1
b11111 >
b11111 ?
b110 C
b11110 8
b10100 ;
0(
1%
0&
#1335000
b11111 @
1!
1(
#1340000
0(
0%
1*
b1111110 )
b1111110 ,
b1111110 5
#1345000
0G
b11111 -
b11111 A
b11111 F
1(
#1350000
b111100 #
b111100 2
b111100 4
b101 3
b101 7
b101 <
b110 0
b110 9
b110 D
b10101 =
b11110 1
b11110 >
b11110 ?
b11101 8
b10110 ;
0(
1%
1&
0*
#1355000
b11110 @
0!
1(
#1356000
b111001 $
#1360000
b11111 8
b10101 ;
0(
0%
0&
#1365000
1G
b11110 -
b11110 A
b11110 F
1(
#1370000
b11111 1
b11111 >
b11111 ?
0G
b111 E
b101 H
0(
1%
1*
b111001 )
b111001 ,
b111001 5
#1375000
b101 /
b101 6
b101 I
b101 E
b11111 @
b110 H
b101 J
b111 .
b111 B
b111 K
1(
#1380000
b11101 8
0G
b111 E
b10110 ;
b101 H
0(
0%
1&
0*
#1385000
1G
b11111 -
b11111 A
b11111 F
1(
#1386000
b11010011 $
#1390000
b111 C
b11101 1
b11101 >
b11101 ?
b11111 8
b10101 ;
0(
1%
0&
#1395000
b11101 @
1!
1(
#1400000
0(
0%
1*
b11010011 )
b11010011 ,
b11010011 5
#1405000
0G
b11101 -
b11101 A
b11101 F
1(
#1410000
b10001010 #
b10001010 2
b10001010 4
b110 3
b110 7
b110 <
b10110 =
b11111 1
b11111 >
b11111 ?
b111 0
b111 9
b111 D
b11100 8
b10111 ;
0(
1%
1&
0*
#1415000
b11111 @
0!
1(
#1420000
b11101 8
b10110 ;
0(
0%
0&
#1425000
1G
b11111 -
b11111 A
b11111 F
1(
#1426000
b1111000 $
#1430000
b11101 1
b11101 >
b11101 ?
0G
b101 E
b110 H
0(
1%
1*
b1111000 )
b1111000 ,
b1111000 5
#1435000
b110 /
b110 6
b110 I
b100 E
b11101 @
b111 H
b110 J
b101 .
b101 B
b101 K
1(
#1440000
b11100 8
b101 E
b10111 ;
b110 H
0(
0%
1&
0*
#1445000
1G
b11101 -
b11101 A
b11101 F
1(
#1450000
b11100 1
b11100 >
b11100 ?
b101 C
b11101 8
b10110 ;
0(
1%
0&
#1455000
b11100 @
1!
1(
#1460000
0(
0%
1*
#1462000
b1001001 $
#1465000
0G
b11100 -
b11100 A
b11100 F
1(
#1470000
b111 3
b111 7
b111 <
b101 0
b101 9
b101 D
b10111 =
b11101 1
b11101 >
b11101 ?
b10100 8
b11000 ;
0(
1%
1&
0*
#1472000
b101010 $
#1475000
b11101 @
0!
1(
#1480000
b11100 8
b10111 ;
0(
0%
0&
#1485000
1G
b11101 -
b11101 A
b11101 F
1(
#1490000
b11100 1
b11100 >
b11100 ?
0G
b100 E
b111 H
0(
1%
1*
b101010 )
b101010 ,
b101010 5
#1495000
b111 /
b111 6
b111 I
b1100 E
b11100 @
b1000 H
b111 J
b100 .
b100 B
b100 K
1(
#1500000
b10100 8
b100 E
b11000 ;
b111 H
0(
0%
1&
0*
#1505000
1G
b11100 -
b11100 A
b11100 F
1(
